%YAML 1.1
%TAG !u! tag:unity3d.com,2011:
--- !u!74 &7400000
AnimationClip:
  m_ObjectHideFlags: 0
  m_PrefabParentObject: {fileID: 0}
  m_PrefabInternal: {fileID: 0}
  m_Name: Balloon4Animation
  serializedVersion: 6
  m_Legacy: 0
  m_Compressed: 0
  m_UseHighQualityCurve: 1
  m_RotationCurves: []
  m_CompressedRotationCurves: []
  m_EulerCurves: []
  m_PositionCurves:
  - curve:
      serializedVersion: 2
      m_Curve:
      - time: 0
        value: {x: 1.4876955, y: -7.75, z: 0}
        inSlope: {x: 0, y: 0.99787235, z: 0}
        outSlope: {x: 0, y: 0.99787235, z: 0}
        tangentMode: 0
      - time: 1
        value: {x: 1.4876955, y: -6.7521276, z: 0}
        inSlope: {x: 0.7896522, y: 0.99893594, z: 0}
        outSlope: {x: 0.7896522, y: 0.99893594, z: 0}
        tangentMode: 50331648
      - time: 2
        value: {x: 3.067, y: -5.752128, z: 0}
        inSlope: {x: -0.00000023841858, y: 0.99999976, z: 0}
        outSlope: {x: -0.00000023841858, y: 0.99999976, z: 0}
        tangentMode: 0
      - time: 3
        value: {x: 1.487695, y: -4.752128, z: 0}
        inSlope: {x: 0, y: 1.0000001, z: 0}
        outSlope: {x: 0, y: 1.0000001, z: 0}
        tangentMode: 480
      - time: 4
        value: {x: 3.067, y: -3.752128, z: 0}
        inSlope: {x: 0, y: 1.0000001, z: 0}
        outSlope: {x: 0, y: 1.0000001, z: 0}
        tangentMode: 583495836
      - time: 5
        value: {x: 1.487695, y: -2.752128, z: 0}
        inSlope: {x: 0, y: 0.99999994, z: 0}
        outSlope: {x: 0, y: 0.99999994, z: 0}
        tangentMode: 0
      - time: 6
        value: {x: 3.067, y: -1.752128, z: 0}
        inSlope: {x: 0, y: 0.99999994, z: 0}
        outSlope: {x: 0, y: 0.99999994, z: 0}
        tangentMode: 0
      - time: 7
        value: {x: 1.487695, y: -0.752128, z: 0}
        inSlope: {x: -0.78965247, y: 1.252128, z: 0}
        outSlope: {x: -0.78965247, y: 1.252128, z: 0}
        tangentMode: 0
      - time: 8
        value: {x: 1.487695, y: 0.752128, z: 0}
        inSlope: {x: 0.78965247, y: 1.252128, z: 0}
        outSlope: {x: 0.78965247, y: 1.252128, z: 0}
        tangentMode: 0
      - time: 9
        value: {x: 3.067, y: 1.752128, z: 0}
        inSlope: {x: 0, y: 0.99999994, z: 0}
        outSlope: {x: 0, y: 0.99999994, z: 0}
        tangentMode: 1093140480
      - time: 10
        value: {x: 1.487695, y: 2.752128, z: 0}
        inSlope: {x: 0, y: 0.99999994, z: 0}
        outSlope: {x: 0, y: 0.99999994, z: 0}
        tangentMode: 0
      - time: 11
        value: {x: 3.067, y: 3.752128, z: 0}
        inSlope: {x: 0, y: 1.0000001, z: 0}
        outSlope: {x: 0, y: 1.0000001, z: 0}
        tangentMode: 29
      - time: 12
        value: {x: 1.487695, y: 4.752128, z: 0}
        inSlope: {x: 0, y: 1.0000001, z: 0}
        outSlope: {x: 0, y: 1.0000001, z: 0}
        tangentMode: 126930360
      - time: 13
        value: {x: 3.067, y: 5.752128, z: 0}
        inSlope: {x: 0.00000023841858, y: 1, z: 0}
        outSlope: {x: 0.00000023841858, y: 1, z: 0}
        tangentMode: -1
      - time: 14
        value: {x: 1.4876955, y: 6.752128, z: 0}
        inSlope: {x: -1.5793045, y: 1, z: 0}
        outSlope: {x: -1.5793045, y: 1, z: 0}
        tangentMode: 1108082688
      m_PreInfinity: 2
      m_PostInfinity: 2
      m_RotationOrder: 4
    path: 
  m_ScaleCurves: []
  m_FloatCurves: []
  m_PPtrCurves:
  - curve:
    - time: 1
      value: {fileID: 21300000, guid: b458a57bc2a564bfeacfdc92d86f66cc, type: 3}
    - time: 2
      value: {fileID: 21300000, guid: b458a57bc2a564bfeacfdc92d86f66cc, type: 3}
    - time: 3
      value: {fileID: 21300000, guid: b458a57bc2a564bfeacfdc92d86f66cc, type: 3}
    - time: 4
      value: {fileID: 21300000, guid: b458a57bc2a564bfeacfdc92d86f66cc, type: 3}
    - time: 5
      value: {fileID: 21300000, guid: b458a57bc2a564bfeacfdc92d86f66cc, type: 3}
    - time: 6
      value: {fileID: 21300000, guid: b458a57bc2a564bfeacfdc92d86f66cc, type: 3}
    - time: 7
      value: {fileID: 21300000, guid: b458a57bc2a564bfeacfdc92d86f66cc, type: 3}
    - time: 8
      value: {fileID: 21300000, guid: b458a57bc2a564bfeacfdc92d86f66cc, type: 3}
    - time: 9
      value: {fileID: 21300000, guid: b458a57bc2a564bfeacfdc92d86f66cc, type: 3}
    - time: 10
      value: {fileID: 21300000, guid: b458a57bc2a564bfeacfdc92d86f66cc, type: 3}
    - time: 12
      value: {fileID: 21300000, guid: b458a57bc2a564bfeacfdc92d86f66cc, type: 3}
    - time: 13
      value: {fileID: 21300000, guid: b458a57bc2a564bfeacfdc92d86f66cc, type: 3}
    - time: 14
      value: {fileID: 21300000, guid: b458a57bc2a564bfeacfdc92d86f66cc, type: 3}
    attribute: m_Sprite
    path: 
    classID: 212
    script: {fileID: 0}
  m_SampleRate: 1
  m_WrapMode: 0
  m_Bounds:
    m_Center: {x: 0, y: 0, z: 0}
    m_Extent: {x: 0, y: 0, z: 0}
  m_ClipBindingConstant:
    genericBindings:
    - path: 0
      attribute: 1
      script: {fileID: 0}
      classID: 4
      customType: 0
      isPPtrCurve: 0
    - path: 0
      attribute: 0
      script: {fileID: 0}
      classID: 212
      customType: 23
      isPPtrCurve: 1
    pptrCurveMapping:
    - {fileID: 21300000, guid: b458a57bc2a564bfeacfdc92d86f66cc, type: 3}
    - {fileID: 21300000, guid: b458a57bc2a564bfeacfdc92d86f66cc, type: 3}
    - {fileID: 21300000, guid: b458a57bc2a564bfeacfdc92d86f66cc, type: 3}
    - {fileID: 21300000, guid: b458a57bc2a564bfeacfdc92d86f66cc, type: 3}
    - {fileID: 21300000, guid: b458a57bc2a564bfeacfdc92d86f66cc, type: 3}
    - {fileID: 21300000, guid: b458a57bc2a564bfeacfdc92d86f66cc, type: 3}
    - {fileID: 21300000, guid: b458a57bc2a564bfeacfdc92d86f66cc, type: 3}
    - {fileID: 21300000, guid: b458a57bc2a564bfeacfdc92d86f66cc, type: 3}
    - {fileID: 21300000, guid: b458a57bc2a564bfeacfdc92d86f66cc, type: 3}
    - {fileID: 21300000, guid: b458a57bc2a564bfeacfdc92d86f66cc, type: 3}
    - {fileID: 21300000, guid: b458a57bc2a564bfeacfdc92d86f66cc, type: 3}
    - {fileID: 21300000, guid: b458a57bc2a564bfeacfdc92d86f66cc, type: 3}
    - {fileID: 21300000, guid: b458a57bc2a564bfeacfdc92d86f66cc, type: 3}
  m_AnimationClipSettings:
    serializedVersion: 2
    m_AdditiveReferencePoseClip: {fileID: 0}
    m_AdditiveReferencePoseTime: 0
    m_StartTime: 0
    m_StopTime: 15
    m_OrientationOffsetY: 0
    m_Level: 0
    m_CycleOffset: 0
    m_HasAdditiveReferencePose: 0
    m_LoopTime: 1
    m_LoopBlend: 0
    m_LoopBlendOrientation: 0
    m_LoopBlendPositionY: 0
    m_LoopBlendPositionXZ: 0
    m_KeepOriginalOrientation: 0
    m_KeepOriginalPositionY: 1
    m_KeepOriginalPositionXZ: 0
    m_HeightFromFeet: 0
    m_Mirror: 0
  m_EditorCurves:
  - curve:
      serializedVersion: 2
      m_Curve:
      - time: 0
        value: 1.4876955
        inSlope: 0
        outSlope: 0
        tangentMode: 10
      - time: 1
        value: 1.4876955
        inSlope: 0.7896522
        outSlope: 0.7896522
        tangentMode: 10
      - time: 2
        value: 3.067
        inSlope: -0.00000023841858
        outSlope: -0.00000023841858
        tangentMode: 10
      - time: 3
        value: 1.487695
        inSlope: 0
        outSlope: 0
        tangentMode: 10
      - time: 4
        value: 3.067
        inSlope: 0
        outSlope: 0
        tangentMode: 10
      - time: 5
        value: 1.487695
        inSlope: 0
        outSlope: 0
        tangentMode: 10
      - time: 6
        value: 3.067
        inSlope: 0
        outSlope: 0
        tangentMode: 10
      - time: 7
        value: 1.487695
        inSlope: -0.78965247
        outSlope: -0.78965247
        tangentMode: 10
      - time: 8
        value: 1.487695
        inSlope: 0.78965247
        outSlope: 0.78965247
        tangentMode: 10
      - time: 9
        value: 3.067
        inSlope: 0
        outSlope: 0
        tangentMode: 10
      - time: 10
        value: 1.487695
        inSlope: 0
        outSlope: 0
        tangentMode: 10
      - time: 11
        value: 3.067
        inSlope: 0
        outSlope: 0
        tangentMode: 10
      - time: 12
        value: 1.487695
        inSlope: 0
        outSlope: 0
        tangentMode: 10
      - time: 13
        value: 3.067
        inSlope: 0.00000023841858
        outSlope: 0.00000023841858
        tangentMode: 10
      - time: 14
        value: 1.4876955
        inSlope: -1.5793045
        outSlope: -1.5793045
        tangentMode: 10
      m_PreInfinity: 2
      m_PostInfinity: 2
      m_RotationOrder: 4
    attribute: m_LocalPosition.x
    path: 
    classID: 4
    script: {fileID: 0}
  - curve:
      serializedVersion: 2
      m_Curve:
      - time: 0
        value: -7.75
        inSlope: 0.99787235
        outSlope: 0.99787235
        tangentMode: 10
      - time: 1
        value: -6.7521276
        inSlope: 0.99893594
        outSlope: 0.99893594
        tangentMode: 10
      - time: 2
        value: -5.752128
        inSlope: 0.99999976
        outSlope: 0.99999976
        tangentMode: 10
      - time: 3
        value: -4.752128
        inSlope: 1.0000001
        outSlope: 1.0000001
        tangentMode: 10
      - time: 4
        value: -3.752128
        inSlope: 1.0000001
        outSlope: 1.0000001
        tangentMode: 10
      - time: 5
        value: -2.752128
        inSlope: 0.99999994
        outSlope: 0.99999994
        tangentMode: 10
      - time: 6
        value: -1.752128
        inSlope: 0.99999994
        outSlope: 0.99999994
        tangentMode: 10
      - time: 7
        value: -0.752128
        inSlope: 1.252128
        outSlope: 1.252128
        tangentMode: 10
      - time: 8
        value: 0.752128
        inSlope: 1.252128
        outSlope: 1.252128
        tangentMode: 10
      - time: 9
        value: 1.752128
        inSlope: 0.99999994
        outSlope: 0.99999994
        tangentMode: 10
      - time: 10
        value: 2.752128
        inSlope: 0.99999994
        outSlope: 0.99999994
        tangentMode: 10
      - time: 11
        value: 3.752128
        inSlope: 1.0000001
        outSlope: 1.0000001
        tangentMode: 10
      - time: 12
        value: 4.752128
        inSlope: 1.0000001
        outSlope: 1.0000001
        tangentMode: 10
      - time: 13
        value: 5.752128
        inSlope: 1
        outSlope: 1
        tangentMode: 10
      - time: 14
        value: 6.752128
        inSlope: 1
        outSlope: 1
        tangentMode: 10
      m_PreInfinity: 2
      m_PostInfinity: 2
      m_RotationOrder: 4
    attribute: m_LocalPosition.y
    path: 
    classID: 4
    script: {fileID: 0}
  - curve:
      serializedVersion: 2
      m_Curve:
      - time: 0
        value: 0
        inSlope: 0
        outSlope: 0
        tangentMode: 10
      - time: 1
        value: 0
        inSlope: 0
        outSlope: 0
        tangentMode: 10
      - time: 2
        value: 0
        inSlope: 0
        outSlope: 0
        tangentMode: 10
      - time: 3
        value: 0
        inSlope: 0
        outSlope: 0
        tangentMode: 10
      - time: 4
        value: 0
        inSlope: 0
        outSlope: 0
        tangentMode: 10
      - time: 5
        value: 0
        inSlope: 0
        outSlope: 0
        tangentMode: 10
      - time: 6
        value: 0
        inSlope: 0
        outSlope: 0
        tangentMode: 10
      - time: 7
        value: 0
        inSlope: 0
        outSlope: 0
        tangentMode: 10
      - time: 8
        value: 0
        inSlope: 0
        outSlope: 0
        tangentMode: 10
      - time: 9
        value: 0
        inSlope: 0
        outSlope: 0
        tangentMode: 10
      - time: 10
        value: 0
        inSlope: 0
        outSlope: 0
        tangentMode: 10
      - time: 11
        value: 0
        inSlope: 0
        outSlope: 0
        tangentMode: 10
      - time: 12
        value: 0
        inSlope: 0
        outSlope: 0
        tangentMode: 10
      - time: 13
        value: 0
        inSlope: 0
        outSlope: 0
        tangentMode: 10
      - time: 14
        value: 0
        inSlope: 0
        outSlope: 0
        tangentMode: 10
      m_PreInfinity: 2
      m_PostInfinity: 2
      m_RotationOrder: 4
    attribute: m_LocalPosition.z
    path: 
    classID: 4
    script: {fileID: 0}
  m_EulerEditorCurves: []
  m_HasGenericRootTransform: 1
  m_HasMotionFloatCurves: 0
  m_GenerateMotionCurves: 0
  m_Events: []
