%YAML 1.1
%TAG !u! tag:unity3d.com,2011:
--- !u!74 &7400000
AnimationClip:
  m_ObjectHideFlags: 0
  m_PrefabParentObject: {fileID: 0}
  m_PrefabInternal: {fileID: 0}
  m_Name: Balloon1Animation
  serializedVersion: 6
  m_Legacy: 0
  m_Compressed: 0
  m_UseHighQualityCurve: 1
  m_RotationCurves: []
  m_CompressedRotationCurves: []
  m_EulerCurves: []
  m_PositionCurves:
  - curve:
      serializedVersion: 2
      m_Curve:
      - time: 0
        value: {x: -0.72963494, y: -7.86, z: 0}
        inSlope: {x: 0, y: 1.7400002, z: 0}
        outSlope: {x: 0, y: 1.7400002, z: 0}
        tangentMode: 8
      - time: 1
        value: {x: -0.72963494, y: -6.12, z: 0}
        inSlope: {x: -0.33518252, y: 1.6200001, z: 0}
        outSlope: {x: -0.33518252, y: 1.6200001, z: 0}
        tangentMode: 1067198712
      - time: 2
        value: {x: -1.4, y: -4.62, z: 0}
        inSlope: {x: 0.32481745, y: 1.43, z: 0}
        outSlope: {x: 0.32481745, y: 1.43, z: 0}
        tangentMode: 1068373116
      - time: 3
        value: {x: -0.08, y: -3.26, z: 0}
        inSlope: {x: 0.09499997, y: 1.645, z: 0}
        outSlope: {x: 0.09499997, y: 1.645, z: 0}
        tangentMode: 1068960317
      - time: 4
        value: {x: -1.21, y: -1.33, z: 0}
        inSlope: {x: 0.100000024, y: 1.89, z: 0}
        outSlope: {x: 0.100000024, y: 1.89, z: 0}
        tangentMode: 1070763868
      - time: 5
        value: {x: 0.12, y: 0.52, z: 0}
        inSlope: {x: 0.055000007, y: 1.36, z: 0}
        outSlope: {x: 0.055000007, y: 1.36, z: 0}
        tangentMode: 1072819077
      - time: 6
        value: {x: -1.1, y: 1.39, z: 0}
        inSlope: {x: -0.16, y: 0.855, z: 0}
        outSlope: {x: -0.16, y: 0.855, z: 0}
        tangentMode: 1068373115
      - time: 7
        value: {x: -0.2, y: 2.23, z: 0}
        inSlope: {x: -0.054999977, y: 0.705, z: 0}
        outSlope: {x: -0.054999977, y: 0.705, z: 0}
        tangentMode: 1062920520
      - time: 8
        value: {x: -1.21, y: 2.8, z: 0}
        inSlope: {x: -0.07499999, y: 0.67999995, z: 0}
        outSlope: {x: -0.07499999, y: 0.67999995, z: 0}
        tangentMode: 1060403937
      - time: 9
        value: {x: -0.35, y: 3.59, z: 0}
        inSlope: {x: -0.089999974, y: 0.78499997, z: 0}
        outSlope: {x: -0.089999974, y: 0.78499997, z: 0}
        tangentMode: 1059984506
      - time: 10
        value: {x: -1.39, y: 4.37, z: 0}
        inSlope: {x: -0.195, y: 0.97000015, z: 0}
        outSlope: {x: -0.195, y: 0.97000015, z: 0}
        tangentMode: 1061746114
      - time: 11
        value: {x: -0.74, y: 5.53, z: 0}
        inSlope: {x: 0.65, y: 1.1600003, z: 0}
        outSlope: {x: 0.65, y: 1.1600003, z: 0}
        tangentMode: 1064849902
      m_PreInfinity: 2
      m_PostInfinity: 2
      m_RotationOrder: 4
    path: 
  m_ScaleCurves: []
  m_FloatCurves: []
  m_PPtrCurves:
  - curve:
    - time: 1
      value: {fileID: 21300000, guid: 595ac082ee5c049f0af343da77c9c3a5, type: 3}
    - time: 2
      value: {fileID: 21300000, guid: 595ac082ee5c049f0af343da77c9c3a5, type: 3}
    - time: 3
      value: {fileID: 21300000, guid: 595ac082ee5c049f0af343da77c9c3a5, type: 3}
    - time: 4
      value: {fileID: 21300000, guid: 595ac082ee5c049f0af343da77c9c3a5, type: 3}
    attribute: m_Sprite
    path: 
    classID: 212
    script: {fileID: 0}
  m_SampleRate: 1
  m_WrapMode: 0
  m_Bounds:
    m_Center: {x: 0, y: 0, z: 0}
    m_Extent: {x: 0, y: 0, z: 0}
  m_ClipBindingConstant:
    genericBindings:
    - path: 0
      attribute: 1
      script: {fileID: 0}
      classID: 4
      customType: 0
      isPPtrCurve: 0
    - path: 0
      attribute: 0
      script: {fileID: 0}
      classID: 212
      customType: 23
      isPPtrCurve: 1
    pptrCurveMapping:
    - {fileID: 21300000, guid: 595ac082ee5c049f0af343da77c9c3a5, type: 3}
    - {fileID: 21300000, guid: 595ac082ee5c049f0af343da77c9c3a5, type: 3}
    - {fileID: 21300000, guid: 595ac082ee5c049f0af343da77c9c3a5, type: 3}
    - {fileID: 21300000, guid: 595ac082ee5c049f0af343da77c9c3a5, type: 3}
  m_AnimationClipSettings:
    serializedVersion: 2
    m_AdditiveReferencePoseClip: {fileID: 0}
    m_AdditiveReferencePoseTime: 0
    m_StartTime: 0
    m_StopTime: 11
    m_OrientationOffsetY: 0
    m_Level: 0
    m_CycleOffset: 0
    m_HasAdditiveReferencePose: 0
    m_LoopTime: 1
    m_LoopBlend: 0
    m_LoopBlendOrientation: 0
    m_LoopBlendPositionY: 0
    m_LoopBlendPositionXZ: 0
    m_KeepOriginalOrientation: 0
    m_KeepOriginalPositionY: 1
    m_KeepOriginalPositionXZ: 0
    m_HeightFromFeet: 0
    m_Mirror: 0
  m_EditorCurves:
  - curve:
      serializedVersion: 2
      m_Curve:
      - time: 0
        value: -0.72963494
        inSlope: 0
        outSlope: 0
        tangentMode: 10
      - time: 1
        value: -0.72963494
        inSlope: -0.33518252
        outSlope: -0.33518252
        tangentMode: 10
      - time: 2
        value: -1.4
        inSlope: 0.32481745
        outSlope: 0.32481745
        tangentMode: 10
      - time: 3
        value: -0.08
        inSlope: 0.09499997
        outSlope: 0.09499997
        tangentMode: 10
      - time: 4
        value: -1.21
        inSlope: 0.100000024
        outSlope: 0.100000024
        tangentMode: 10
      - time: 5
        value: 0.12
        inSlope: 0.055000007
        outSlope: 0.055000007
        tangentMode: 10
      - time: 6
        value: -1.1
        inSlope: -0.16
        outSlope: -0.16
        tangentMode: 10
      - time: 7
        value: -0.2
        inSlope: -0.054999977
        outSlope: -0.054999977
        tangentMode: 10
      - time: 8
        value: -1.21
        inSlope: -0.07499999
        outSlope: -0.07499999
        tangentMode: 10
      - time: 9
        value: -0.35
        inSlope: -0.089999974
        outSlope: -0.089999974
        tangentMode: 10
      - time: 10
        value: -1.39
        inSlope: -0.195
        outSlope: -0.195
        tangentMode: 10
      - time: 11
        value: -0.74
        inSlope: 0.65
        outSlope: 0.65
        tangentMode: 10
      m_PreInfinity: 2
      m_PostInfinity: 2
      m_RotationOrder: 4
    attribute: m_LocalPosition.x
    path: 
    classID: 4
    script: {fileID: 0}
  - curve:
      serializedVersion: 2
      m_Curve:
      - time: 0
        value: -7.86
        inSlope: 1.7400002
        outSlope: 1.7400002
        tangentMode: 10
      - time: 1
        value: -6.12
        inSlope: 1.6200001
        outSlope: 1.6200001
        tangentMode: 10
      - time: 2
        value: -4.62
        inSlope: 1.43
        outSlope: 1.43
        tangentMode: 10
      - time: 3
        value: -3.26
        inSlope: 1.645
        outSlope: 1.645
        tangentMode: 10
      - time: 4
        value: -1.33
        inSlope: 1.89
        outSlope: 1.89
        tangentMode: 10
      - time: 5
        value: 0.52
        inSlope: 1.36
        outSlope: 1.36
        tangentMode: 10
      - time: 6
        value: 1.39
        inSlope: 0.855
        outSlope: 0.855
        tangentMode: 10
      - time: 7
        value: 2.23
        inSlope: 0.705
        outSlope: 0.705
        tangentMode: 10
      - time: 8
        value: 2.8
        inSlope: 0.67999995
        outSlope: 0.67999995
        tangentMode: 10
      - time: 9
        value: 3.59
        inSlope: 0.78499997
        outSlope: 0.78499997
        tangentMode: 10
      - time: 10
        value: 4.37
        inSlope: 0.97000015
        outSlope: 0.97000015
        tangentMode: 10
      - time: 11
        value: 5.53
        inSlope: 1.1600003
        outSlope: 1.1600003
        tangentMode: 10
      m_PreInfinity: 2
      m_PostInfinity: 2
      m_RotationOrder: 4
    attribute: m_LocalPosition.y
    path: 
    classID: 4
    script: {fileID: 0}
  - curve:
      serializedVersion: 2
      m_Curve:
      - time: 0
        value: 0
        inSlope: 0
        outSlope: 0
        tangentMode: 10
      - time: 1
        value: 0
        inSlope: 0
        outSlope: 0
        tangentMode: 10
      - time: 2
        value: 0
        inSlope: 0
        outSlope: 0
        tangentMode: 10
      - time: 3
        value: 0
        inSlope: 0
        outSlope: 0
        tangentMode: 10
      - time: 4
        value: 0
        inSlope: 0
        outSlope: 0
        tangentMode: 10
      - time: 5
        value: 0
        inSlope: 0
        outSlope: 0
        tangentMode: 10
      - time: 6
        value: 0
        inSlope: 0
        outSlope: 0
        tangentMode: 10
      - time: 7
        value: 0
        inSlope: 0
        outSlope: 0
        tangentMode: 10
      - time: 8
        value: 0
        inSlope: 0
        outSlope: 0
        tangentMode: 10
      - time: 9
        value: 0
        inSlope: 0
        outSlope: 0
        tangentMode: 10
      - time: 10
        value: 0
        inSlope: 0
        outSlope: 0
        tangentMode: 10
      - time: 11
        value: 0
        inSlope: 0
        outSlope: 0
        tangentMode: 10
      m_PreInfinity: 2
      m_PostInfinity: 2
      m_RotationOrder: 4
    attribute: m_LocalPosition.z
    path: 
    classID: 4
    script: {fileID: 0}
  m_EulerEditorCurves: []
  m_HasGenericRootTransform: 1
  m_HasMotionFloatCurves: 0
  m_GenerateMotionCurves: 0
  m_Events: []
