%YAML 1.1
%TAG !u! tag:unity3d.com,2011:
--- !u!74 &7400000
AnimationClip:
  m_ObjectHideFlags: 0
  m_PrefabParentObject: {fileID: 0}
  m_PrefabInternal: {fileID: 0}
  m_Name: Balloon3Animation
  serializedVersion: 6
  m_Legacy: 0
  m_Compressed: 0
  m_UseHighQualityCurve: 1
  m_RotationCurves: []
  m_CompressedRotationCurves: []
  m_EulerCurves: []
  m_PositionCurves:
  - curve:
      serializedVersion: 2
      m_Curve:
      - time: 0
        value: {x: 0.398, y: -7.04, z: 0}
        inSlope: {x: 0, y: 1.1217718, z: 0}
        outSlope: {x: 0, y: 1.1217718, z: 0}
        tangentMode: 0
      - time: 1
        value: {x: 0.398, y: -5.918228, z: 0}
        inSlope: {x: -0.97465205, y: 1.0608861, z: 0}
        outSlope: {x: -0.97465205, y: 1.0608861, z: 0}
        tangentMode: 0
      - time: 2
        value: {x: -1.5513041, y: -4.9182277, z: 0}
        inSlope: {x: 0, y: 1.0000001, z: 0}
        outSlope: {x: 0, y: 1.0000001, z: 0}
        tangentMode: 0
      - time: 3
        value: {x: 0.398, y: -3.918228, z: 0}
        inSlope: {x: -0.17297816, y: 0.9999999, z: 0}
        outSlope: {x: -0.17297816, y: 0.9999999, z: 0}
        tangentMode: 0
      - time: 4
        value: {x: -1.8972604, y: -2.918228, z: 0}
        inSlope: {x: 0, y: 0.99999994, z: 0}
        outSlope: {x: 0, y: 0.99999994, z: 0}
        tangentMode: 0
      - time: 5
        value: {x: 0.398, y: -1.918228, z: 0}
        inSlope: {x: 0, y: 0.99999994, z: 0}
        outSlope: {x: 0, y: 0.99999994, z: 0}
        tangentMode: 0
      - time: 6
        value: {x: -1.8972604, y: -0.918228, z: 0}
        inSlope: {x: 0, y: 1.554114, z: 0}
        outSlope: {x: 0, y: 1.554114, z: 0}
        tangentMode: 0
      - time: 7
        value: {x: 0.398, y: 1.19, z: 0}
        inSlope: {x: 0, y: 1.9182279, z: 0}
        outSlope: {x: 0, y: 1.9182279, z: 0}
        tangentMode: 4
      - time: 8
        value: {x: -1.8972604, y: 2.918228, z: 0}
        inSlope: {x: 0, y: 1.3641139, z: 0}
        outSlope: {x: 0, y: 1.3641139, z: 0}
        tangentMode: 304
      - time: 9
        value: {x: 0.398, y: 3.918228, z: 0}
        inSlope: {x: 0, y: 1.0000001, z: 0}
        outSlope: {x: 0, y: 1.0000001, z: 0}
        tangentMode: 0
      - time: 10
        value: {x: -1.8972604, y: 4.918228, z: 0}
        inSlope: {x: 0, y: 1.0000001, z: 0}
        outSlope: {x: 0, y: 1.0000001, z: 0}
        tangentMode: 4
      - time: 11
        value: {x: 0.398, y: 5.918228, z: 0}
        inSlope: {x: 0, y: 1, z: 0}
        outSlope: {x: 0, y: 1, z: 0}
        tangentMode: 304
      - time: 12
        value: {x: -1.8972604, y: 6.918228, z: 0}
        inSlope: {x: -2.2952604, y: 1, z: 0}
        outSlope: {x: -2.2952604, y: 1, z: 0}
        tangentMode: 0
      m_PreInfinity: 2
      m_PostInfinity: 2
      m_RotationOrder: 4
    path: 
  m_ScaleCurves: []
  m_FloatCurves: []
  m_PPtrCurves:
  - curve:
    - time: 1
      value: {fileID: 21300000, guid: cf24e3b9338ac4e08b256adc01bf7f95, type: 3}
    - time: 2
      value: {fileID: 21300000, guid: cf24e3b9338ac4e08b256adc01bf7f95, type: 3}
    - time: 5
      value: {fileID: 21300000, guid: cf24e3b9338ac4e08b256adc01bf7f95, type: 3}
    - time: 10
      value: {fileID: 21300000, guid: cf24e3b9338ac4e08b256adc01bf7f95, type: 3}
    attribute: m_Sprite
    path: 
    classID: 212
    script: {fileID: 0}
  m_SampleRate: 1
  m_WrapMode: 0
  m_Bounds:
    m_Center: {x: 0, y: 0, z: 0}
    m_Extent: {x: 0, y: 0, z: 0}
  m_ClipBindingConstant:
    genericBindings:
    - path: 0
      attribute: 1
      script: {fileID: 0}
      classID: 4
      customType: 0
      isPPtrCurve: 0
    - path: 0
      attribute: 0
      script: {fileID: 0}
      classID: 212
      customType: 23
      isPPtrCurve: 1
    pptrCurveMapping:
    - {fileID: 21300000, guid: cf24e3b9338ac4e08b256adc01bf7f95, type: 3}
    - {fileID: 21300000, guid: cf24e3b9338ac4e08b256adc01bf7f95, type: 3}
    - {fileID: 21300000, guid: cf24e3b9338ac4e08b256adc01bf7f95, type: 3}
    - {fileID: 21300000, guid: cf24e3b9338ac4e08b256adc01bf7f95, type: 3}
  m_AnimationClipSettings:
    serializedVersion: 2
    m_AdditiveReferencePoseClip: {fileID: 0}
    m_AdditiveReferencePoseTime: 0
    m_StartTime: 0
    m_StopTime: 12
    m_OrientationOffsetY: 0
    m_Level: 0
    m_CycleOffset: 0
    m_HasAdditiveReferencePose: 0
    m_LoopTime: 1
    m_LoopBlend: 0
    m_LoopBlendOrientation: 0
    m_LoopBlendPositionY: 0
    m_LoopBlendPositionXZ: 0
    m_KeepOriginalOrientation: 0
    m_KeepOriginalPositionY: 1
    m_KeepOriginalPositionXZ: 0
    m_HeightFromFeet: 0
    m_Mirror: 0
  m_EditorCurves:
  - curve:
      serializedVersion: 2
      m_Curve:
      - time: 0
        value: 0.398
        inSlope: 0
        outSlope: 0
        tangentMode: 10
      - time: 1
        value: 0.398
        inSlope: -0.97465205
        outSlope: -0.97465205
        tangentMode: 10
      - time: 2
        value: -1.5513041
        inSlope: 0
        outSlope: 0
        tangentMode: 10
      - time: 3
        value: 0.398
        inSlope: -0.17297816
        outSlope: -0.17297816
        tangentMode: 10
      - time: 4
        value: -1.8972604
        inSlope: 0
        outSlope: 0
        tangentMode: 10
      - time: 5
        value: 0.398
        inSlope: 0
        outSlope: 0
        tangentMode: 10
      - time: 6
        value: -1.8972604
        inSlope: 0
        outSlope: 0
        tangentMode: 10
      - time: 7
        value: 0.398
        inSlope: 0
        outSlope: 0
        tangentMode: 10
      - time: 8
        value: -1.8972604
        inSlope: 0
        outSlope: 0
        tangentMode: 10
      - time: 9
        value: 0.398
        inSlope: 0
        outSlope: 0
        tangentMode: 10
      - time: 10
        value: -1.8972604
        inSlope: 0
        outSlope: 0
        tangentMode: 10
      - time: 11
        value: 0.398
        inSlope: 0
        outSlope: 0
        tangentMode: 10
      - time: 12
        value: -1.8972604
        inSlope: -2.2952604
        outSlope: -2.2952604
        tangentMode: 10
      m_PreInfinity: 2
      m_PostInfinity: 2
      m_RotationOrder: 4
    attribute: m_LocalPosition.x
    path: 
    classID: 4
    script: {fileID: 0}
  - curve:
      serializedVersion: 2
      m_Curve:
      - time: 0
        value: -7.04
        inSlope: 1.1217718
        outSlope: 1.1217718
        tangentMode: 10
      - time: 1
        value: -5.918228
        inSlope: 1.0608861
        outSlope: 1.0608861
        tangentMode: 10
      - time: 2
        value: -4.9182277
        inSlope: 1.0000001
        outSlope: 1.0000001
        tangentMode: 10
      - time: 3
        value: -3.918228
        inSlope: 0.9999999
        outSlope: 0.9999999
        tangentMode: 10
      - time: 4
        value: -2.918228
        inSlope: 0.99999994
        outSlope: 0.99999994
        tangentMode: 10
      - time: 5
        value: -1.918228
        inSlope: 0.99999994
        outSlope: 0.99999994
        tangentMode: 10
      - time: 6
        value: -0.918228
        inSlope: 1.554114
        outSlope: 1.554114
        tangentMode: 10
      - time: 7
        value: 1.19
        inSlope: 1.9182279
        outSlope: 1.9182279
        tangentMode: 10
      - time: 8
        value: 2.918228
        inSlope: 1.3641139
        outSlope: 1.3641139
        tangentMode: 10
      - time: 9
        value: 3.918228
        inSlope: 1.0000001
        outSlope: 1.0000001
        tangentMode: 10
      - time: 10
        value: 4.918228
        inSlope: 1.0000001
        outSlope: 1.0000001
        tangentMode: 10
      - time: 11
        value: 5.918228
        inSlope: 1
        outSlope: 1
        tangentMode: 10
      - time: 12
        value: 6.918228
        inSlope: 1
        outSlope: 1
        tangentMode: 10
      m_PreInfinity: 2
      m_PostInfinity: 2
      m_RotationOrder: 4
    attribute: m_LocalPosition.y
    path: 
    classID: 4
    script: {fileID: 0}
  - curve:
      serializedVersion: 2
      m_Curve:
      - time: 0
        value: 0
        inSlope: 0
        outSlope: 0
        tangentMode: 10
      - time: 1
        value: 0
        inSlope: 0
        outSlope: 0
        tangentMode: 10
      - time: 2
        value: 0
        inSlope: 0
        outSlope: 0
        tangentMode: 10
      - time: 3
        value: 0
        inSlope: 0
        outSlope: 0
        tangentMode: 10
      - time: 4
        value: 0
        inSlope: 0
        outSlope: 0
        tangentMode: 10
      - time: 5
        value: 0
        inSlope: 0
        outSlope: 0
        tangentMode: 10
      - time: 6
        value: 0
        inSlope: 0
        outSlope: 0
        tangentMode: 10
      - time: 7
        value: 0
        inSlope: 0
        outSlope: 0
        tangentMode: 10
      - time: 8
        value: 0
        inSlope: 0
        outSlope: 0
        tangentMode: 10
      - time: 9
        value: 0
        inSlope: 0
        outSlope: 0
        tangentMode: 10
      - time: 10
        value: 0
        inSlope: 0
        outSlope: 0
        tangentMode: 10
      - time: 11
        value: 0
        inSlope: 0
        outSlope: 0
        tangentMode: 10
      - time: 12
        value: 0
        inSlope: 0
        outSlope: 0
        tangentMode: 10
      m_PreInfinity: 2
      m_PostInfinity: 2
      m_RotationOrder: 4
    attribute: m_LocalPosition.z
    path: 
    classID: 4
    script: {fileID: 0}
  m_EulerEditorCurves: []
  m_HasGenericRootTransform: 1
  m_HasMotionFloatCurves: 0
  m_GenerateMotionCurves: 0
  m_Events: []
