%YAML 1.1
%TAG !u! tag:unity3d.com,2011:
--- !u!74 &7400000
AnimationClip:
  m_ObjectHideFlags: 0
  m_PrefabParentObject: {fileID: 0}
  m_PrefabInternal: {fileID: 0}
  m_Name: FbShare
  serializedVersion: 6
  m_Legacy: 0
  m_Compressed: 0
  m_UseHighQualityCurve: 1
  m_RotationCurves: []
  m_CompressedRotationCurves: []
  m_EulerCurves: []
  m_PositionCurves:
  - curve:
      serializedVersion: 2
      m_Curve:
      - time: 0
        value: {x: -0.75, y: 4, z: 0}
        inSlope: {x: 0, y: 0, z: 0}
        outSlope: {x: 0, y: 0, z: 0}
        tangentMode: 0
      - time: 0.175
        value: {x: -0.75, y: 4, z: 0}
        inSlope: {x: 0, y: 0, z: 0}
        outSlope: {x: 0, y: 0, z: 0}
        tangentMode: 0
      - time: 0.425
        value: {x: -0.75, y: 4, z: 0}
        inSlope: {x: 0, y: 0, z: 0}
        outSlope: {x: 0, y: 0, z: 0}
        tangentMode: 0
      - time: 0.7
        value: {x: -0.75, y: 4, z: 0}
        inSlope: {x: 0, y: 0, z: 0}
        outSlope: {x: 0, y: 0, z: 0}
        tangentMode: 0
      - time: 0.9
        value: {x: -0.75, y: 4, z: 0}
        inSlope: {x: 0, y: 0.7636366, z: 0}
        outSlope: {x: 0, y: 0.7636366, z: 0}
        tangentMode: 0
      - time: 1.175
        value: {x: -0.75, y: 4.42, z: 0}
        inSlope: {x: 0, y: -0.4363631, z: 0}
        outSlope: {x: 0, y: -0.4363631, z: 0}
        tangentMode: 0
      - time: 1.35
        value: {x: -0.75, y: 4, z: 0}
        inSlope: {x: 0, y: -0.46666694, z: 0}
        outSlope: {x: 0, y: -0.46666694, z: 0}
        tangentMode: 0
      - time: 1.5
        value: {x: -0.75, y: 4.22, z: 0}
        inSlope: {x: 0, y: 0.1833334, z: 0}
        outSlope: {x: 0, y: 0.1833334, z: 0}
        tangentMode: 0
      - time: 1.7
        value: {x: -0.75, y: 4, z: 0}
        inSlope: {x: 0, y: -0.54999936, z: 0}
        outSlope: {x: 0, y: -0.54999936, z: 0}
        tangentMode: 0
      - time: 2
        value: {x: -0.75, y: 4, z: 0}
        inSlope: {x: 0, y: 0, z: 0}
        outSlope: {x: 0, y: 0, z: 0}
        tangentMode: 0
      m_PreInfinity: 2
      m_PostInfinity: 2
      m_RotationOrder: 4
    path: 
  m_ScaleCurves: []
  m_FloatCurves: []
  m_PPtrCurves: []
  m_SampleRate: 40
  m_WrapMode: 0
  m_Bounds:
    m_Center: {x: 0, y: 0, z: 0}
    m_Extent: {x: 0, y: 0, z: 0}
  m_ClipBindingConstant:
    genericBindings:
    - path: 0
      attribute: 1
      script: {fileID: 0}
      classID: 4
      customType: 0
      isPPtrCurve: 0
    pptrCurveMapping: []
  m_AnimationClipSettings:
    serializedVersion: 2
    m_AdditiveReferencePoseClip: {fileID: 0}
    m_AdditiveReferencePoseTime: 0
    m_StartTime: 0
    m_StopTime: 2
    m_OrientationOffsetY: 0
    m_Level: 0
    m_CycleOffset: 0
    m_HasAdditiveReferencePose: 0
    m_LoopTime: 1
    m_LoopBlend: 0
    m_LoopBlendOrientation: 0
    m_LoopBlendPositionY: 0
    m_LoopBlendPositionXZ: 0
    m_KeepOriginalOrientation: 0
    m_KeepOriginalPositionY: 1
    m_KeepOriginalPositionXZ: 0
    m_HeightFromFeet: 0
    m_Mirror: 0
  m_EditorCurves:
  - curve:
      serializedVersion: 2
      m_Curve:
      - time: 0
        value: -0.75
        inSlope: 0
        outSlope: 0
        tangentMode: 10
      - time: 0.175
        value: -0.75
        inSlope: 0
        outSlope: 0
        tangentMode: 10
      - time: 0.425
        value: -0.75
        inSlope: 0
        outSlope: 0
        tangentMode: 10
      - time: 0.7
        value: -0.75
        inSlope: 0
        outSlope: 0
        tangentMode: 10
      - time: 0.9
        value: -0.75
        inSlope: 0
        outSlope: 0
        tangentMode: 10
      - time: 1.175
        value: -0.75
        inSlope: 0
        outSlope: 0
        tangentMode: 10
      - time: 1.35
        value: -0.75
        inSlope: 0
        outSlope: 0
        tangentMode: 10
      - time: 1.5
        value: -0.75
        inSlope: 0
        outSlope: 0
        tangentMode: 10
      - time: 1.7
        value: -0.75
        inSlope: 0
        outSlope: 0
        tangentMode: 10
      - time: 2
        value: -0.75
        inSlope: 0
        outSlope: 0
        tangentMode: 10
      m_PreInfinity: 2
      m_PostInfinity: 2
      m_RotationOrder: 4
    attribute: m_LocalPosition.x
    path: 
    classID: 4
    script: {fileID: 0}
  - curve:
      serializedVersion: 2
      m_Curve:
      - time: 0
        value: 4
        inSlope: 0
        outSlope: 0
        tangentMode: 10
      - time: 0.175
        value: 4
        inSlope: 0
        outSlope: 0
        tangentMode: 10
      - time: 0.425
        value: 4
        inSlope: 0
        outSlope: 0
        tangentMode: 10
      - time: 0.7
        value: 4
        inSlope: 0
        outSlope: 0
        tangentMode: 10
      - time: 0.9
        value: 4
        inSlope: 0.7636366
        outSlope: 0.7636366
        tangentMode: 10
      - time: 1.175
        value: 4.42
        inSlope: -0.4363631
        outSlope: -0.4363631
        tangentMode: 10
      - time: 1.35
        value: 4
        inSlope: -0.46666694
        outSlope: -0.46666694
        tangentMode: 10
      - time: 1.5
        value: 4.22
        inSlope: 0.1833334
        outSlope: 0.1833334
        tangentMode: 10
      - time: 1.7
        value: 4
        inSlope: -0.54999936
        outSlope: -0.54999936
        tangentMode: 10
      - time: 2
        value: 4
        inSlope: 0
        outSlope: 0
        tangentMode: 10
      m_PreInfinity: 2
      m_PostInfinity: 2
      m_RotationOrder: 4
    attribute: m_LocalPosition.y
    path: 
    classID: 4
    script: {fileID: 0}
  - curve:
      serializedVersion: 2
      m_Curve:
      - time: 0
        value: 0
        inSlope: 0
        outSlope: 0
        tangentMode: 10
      - time: 0.175
        value: 0
        inSlope: 0
        outSlope: 0
        tangentMode: 10
      - time: 0.425
        value: 0
        inSlope: 0
        outSlope: 0
        tangentMode: 10
      - time: 0.7
        value: 0
        inSlope: 0
        outSlope: 0
        tangentMode: 10
      - time: 0.9
        value: 0
        inSlope: 0
        outSlope: 0
        tangentMode: 10
      - time: 1.175
        value: 0
        inSlope: 0
        outSlope: 0
        tangentMode: 10
      - time: 1.35
        value: 0
        inSlope: 0
        outSlope: 0
        tangentMode: 10
      - time: 1.5
        value: 0
        inSlope: 0
        outSlope: 0
        tangentMode: 10
      - time: 1.7
        value: 0
        inSlope: 0
        outSlope: 0
        tangentMode: 10
      - time: 2
        value: 0
        inSlope: 0
        outSlope: 0
        tangentMode: 10
      m_PreInfinity: 2
      m_PostInfinity: 2
      m_RotationOrder: 4
    attribute: m_LocalPosition.z
    path: 
    classID: 4
    script: {fileID: 0}
  m_EulerEditorCurves: []
  m_HasGenericRootTransform: 1
  m_HasMotionFloatCurves: 0
  m_GenerateMotionCurves: 0
  m_Events: []
