%YAML 1.1
%TAG !u! tag:unity3d.com,2011:
--- !u!74 &7400000
AnimationClip:
  m_ObjectHideFlags: 0
  m_PrefabParentObject: {fileID: 0}
  m_PrefabInternal: {fileID: 0}
  m_Name: RateUs
  serializedVersion: 6
  m_Legacy: 0
  m_Compressed: 0
  m_UseHighQualityCurve: 1
  m_RotationCurves: []
  m_CompressedRotationCurves: []
  m_EulerCurves: []
  m_PositionCurves:
  - curve:
      serializedVersion: 2
      m_Curve:
      - time: 0
        value: {x: 0.75, y: 4, z: 0}
        inSlope: {x: 0, y: 2.1000004, z: 0}
        outSlope: {x: 0, y: 2.1000004, z: 0}
        tangentMode: 0
      - time: 0.2
        value: {x: 0.75, y: 4.42, z: 0}
        inSlope: {x: 0, y: 0, z: 0}
        outSlope: {x: 0, y: 0, z: 0}
        tangentMode: 0
      - time: 0.4
        value: {x: 0.75, y: 4, z: 0}
        inSlope: {x: 0, y: -0.45000082, z: 0}
        outSlope: {x: 0, y: -0.45000082, z: 0}
        tangentMode: 0
      - time: 0.6
        value: {x: 0.75, y: 4.24, z: 0}
        inSlope: {x: 0, y: -0.00000011920929, z: 0}
        outSlope: {x: 0, y: -0.00000011920929, z: 0}
        tangentMode: 0
      - time: 0.8
        value: {x: 0.75, y: 4, z: 0}
        inSlope: {x: 0, y: -0.5999995, z: 0}
        outSlope: {x: 0, y: -0.5999995, z: 0}
        tangentMode: 0
      - time: 0.92
        value: {x: 0.75, y: 4, z: 0}
        inSlope: {x: 0, y: 0, z: 0}
        outSlope: {x: 0, y: 0, z: 0}
        tangentMode: 0
      - time: 1.06
        value: {x: 0.75, y: 4, z: 0}
        inSlope: {x: 0, y: 0, z: 0}
        outSlope: {x: 0, y: 0, z: 0}
        tangentMode: 0
      - time: 1.18
        value: {x: 0.75, y: 4, z: 0}
        inSlope: {x: 0, y: 0, z: 0}
        outSlope: {x: 0, y: 0, z: 0}
        tangentMode: 0
      - time: 1.4
        value: {x: 0.75, y: 4, z: 0}
        inSlope: {x: 0, y: 0, z: 0}
        outSlope: {x: 0, y: 0, z: 0}
        tangentMode: 0
      - time: 1.58
        value: {x: 0.75, y: 4, z: 0}
        inSlope: {x: 0, y: 0, z: 0}
        outSlope: {x: 0, y: 0, z: 0}
        tangentMode: 0
      - time: 1.8
        value: {x: 0.75, y: 4, z: 0}
        inSlope: {x: 0, y: 0, z: 0}
        outSlope: {x: 0, y: 0, z: 0}
        tangentMode: 0
      - time: 2
        value: {x: 0.75, y: 4, z: 0}
        inSlope: {x: 0, y: 0, z: 0}
        outSlope: {x: 0, y: 0, z: 0}
        tangentMode: 0
      m_PreInfinity: 2
      m_PostInfinity: 2
      m_RotationOrder: 4
    path: 
  m_ScaleCurves: []
  m_FloatCurves: []
  m_PPtrCurves: []
  m_SampleRate: 50
  m_WrapMode: 0
  m_Bounds:
    m_Center: {x: 0, y: 0, z: 0}
    m_Extent: {x: 0, y: 0, z: 0}
  m_ClipBindingConstant:
    genericBindings:
    - path: 0
      attribute: 1
      script: {fileID: 0}
      classID: 4
      customType: 0
      isPPtrCurve: 0
    pptrCurveMapping: []
  m_AnimationClipSettings:
    serializedVersion: 2
    m_AdditiveReferencePoseClip: {fileID: 0}
    m_AdditiveReferencePoseTime: 0
    m_StartTime: 0
    m_StopTime: 2
    m_OrientationOffsetY: 0
    m_Level: 0
    m_CycleOffset: 0
    m_HasAdditiveReferencePose: 0
    m_LoopTime: 1
    m_LoopBlend: 0
    m_LoopBlendOrientation: 0
    m_LoopBlendPositionY: 0
    m_LoopBlendPositionXZ: 0
    m_KeepOriginalOrientation: 0
    m_KeepOriginalPositionY: 1
    m_KeepOriginalPositionXZ: 0
    m_HeightFromFeet: 0
    m_Mirror: 0
  m_EditorCurves:
  - curve:
      serializedVersion: 2
      m_Curve:
      - time: 0
        value: 0.75
        inSlope: 0
        outSlope: 0
        tangentMode: 10
      - time: 0.2
        value: 0.75
        inSlope: 0
        outSlope: 0
        tangentMode: 10
      - time: 0.4
        value: 0.75
        inSlope: 0
        outSlope: 0
        tangentMode: 10
      - time: 0.6
        value: 0.75
        inSlope: 0
        outSlope: 0
        tangentMode: 10
      - time: 0.8
        value: 0.75
        inSlope: 0
        outSlope: 0
        tangentMode: 10
      - time: 0.92
        value: 0.75
        inSlope: 0
        outSlope: 0
        tangentMode: 10
      - time: 1.06
        value: 0.75
        inSlope: 0
        outSlope: 0
        tangentMode: 10
      - time: 1.18
        value: 0.75
        inSlope: 0
        outSlope: 0
        tangentMode: 10
      - time: 1.4
        value: 0.75
        inSlope: 0
        outSlope: 0
        tangentMode: 10
      - time: 1.58
        value: 0.75
        inSlope: 0
        outSlope: 0
        tangentMode: 10
      - time: 1.8
        value: 0.75
        inSlope: 0
        outSlope: 0
        tangentMode: 10
      - time: 2
        value: 0.75
        inSlope: 0
        outSlope: 0
        tangentMode: 10
      m_PreInfinity: 2
      m_PostInfinity: 2
      m_RotationOrder: 4
    attribute: m_LocalPosition.x
    path: 
    classID: 4
    script: {fileID: 0}
  - curve:
      serializedVersion: 2
      m_Curve:
      - time: 0
        value: 4
        inSlope: 2.1000004
        outSlope: 2.1000004
        tangentMode: 10
      - time: 0.2
        value: 4.42
        inSlope: 0
        outSlope: 0
        tangentMode: 10
      - time: 0.4
        value: 4
        inSlope: -0.45000082
        outSlope: -0.45000082
        tangentMode: 10
      - time: 0.6
        value: 4.24
        inSlope: -0.00000011920929
        outSlope: -0.00000011920929
        tangentMode: 10
      - time: 0.8
        value: 4
        inSlope: -0.5999995
        outSlope: -0.5999995
        tangentMode: 10
      - time: 0.92
        value: 4
        inSlope: 0
        outSlope: 0
        tangentMode: 10
      - time: 1.06
        value: 4
        inSlope: 0
        outSlope: 0
        tangentMode: 10
      - time: 1.18
        value: 4
        inSlope: 0
        outSlope: 0
        tangentMode: 10
      - time: 1.4
        value: 4
        inSlope: 0
        outSlope: 0
        tangentMode: 10
      - time: 1.58
        value: 4
        inSlope: 0
        outSlope: 0
        tangentMode: 10
      - time: 1.8
        value: 4
        inSlope: 0
        outSlope: 0
        tangentMode: 10
      - time: 2
        value: 4
        inSlope: 0
        outSlope: 0
        tangentMode: 10
      m_PreInfinity: 2
      m_PostInfinity: 2
      m_RotationOrder: 4
    attribute: m_LocalPosition.y
    path: 
    classID: 4
    script: {fileID: 0}
  - curve:
      serializedVersion: 2
      m_Curve:
      - time: 0
        value: 0
        inSlope: 0
        outSlope: 0
        tangentMode: 10
      - time: 0.2
        value: 0
        inSlope: 0
        outSlope: 0
        tangentMode: 10
      - time: 0.4
        value: 0
        inSlope: 0
        outSlope: 0
        tangentMode: 10
      - time: 0.6
        value: 0
        inSlope: 0
        outSlope: 0
        tangentMode: 10
      - time: 0.8
        value: 0
        inSlope: 0
        outSlope: 0
        tangentMode: 10
      - time: 0.92
        value: 0
        inSlope: 0
        outSlope: 0
        tangentMode: 10
      - time: 1.06
        value: 0
        inSlope: 0
        outSlope: 0
        tangentMode: 10
      - time: 1.18
        value: 0
        inSlope: 0
        outSlope: 0
        tangentMode: 10
      - time: 1.4
        value: 0
        inSlope: 0
        outSlope: 0
        tangentMode: 10
      - time: 1.58
        value: 0
        inSlope: 0
        outSlope: 0
        tangentMode: 10
      - time: 1.8
        value: 0
        inSlope: 0
        outSlope: 0
        tangentMode: 10
      - time: 2
        value: 0
        inSlope: 0
        outSlope: 0
        tangentMode: 10
      m_PreInfinity: 2
      m_PostInfinity: 2
      m_RotationOrder: 4
    attribute: m_LocalPosition.z
    path: 
    classID: 4
    script: {fileID: 0}
  m_EulerEditorCurves: []
  m_HasGenericRootTransform: 1
  m_HasMotionFloatCurves: 0
  m_GenerateMotionCurves: 0
  m_Events: []
