%YAML 1.1
%TAG !u! tag:unity3d.com,2011:
--- !u!78 &1
TagManager:
  serializedVersion: 2
  tags:
  - baba_black_sheep
  - five_little_monkey
  - humpty_dumpty
  - if_u_r_happy
  - itsy_bitsy_spider
  - jingle_bell
  - london_bridge
  - mary_had_a_little_lamp
  - old_mcdonald
  - one_two_buckle_my_shoe
  - pussy_cat_pussy_cat
  - ring_a_roses
  - twinkle_star
  - mary_had_a_little_lamb
  - hey_diddle
  - little_boy_blue
  - Back
  - Admob
  - Balloon1
  - Balloon2
  - Balloon3
  - Balloon4
  - Balloon10
  - Button
  - Floor
  - NextButton
  - BackButtonMenu
  - IAPDialog
  - Roof
  - jack_and_jill
  - grand_old_duke
  - mary_quite_contrary
  - jack_horner
  - 21
  - 22
  - 23
  - 24
  - 25
  - 26
  - 27
  - ReviewPopup
  - 2
  - little_boy_blue
  - 15
  - 14
  - jack_and_jill
  - 19
  - i_had_a_little_nut_tree
  - 18
  - 20
  - 17
  layers:
  - Default
  - TransparentFX
  - Ignore Raycast
  - 
  - Water
  - UI
  - 
  - 
  - 
  - 
  - 
  - 
  - 
  - 
  - 
  - 
  - 
  - 
  - 
  - 
  - 
  - 
  - 
  - 
  - 
  - 
  - 
  - 
  - 
  - 
  - 
  - 
  m_SortingLayers:
  - name: Default
    uniqueID: 0
    locked: 0
  - name: Background
    uniqueID: 4020751745
    locked: 0
  - name: Buttons
    uniqueID: 1488371109
    locked: 0
  - name: Decorations
    uniqueID: 261350141
    locked: 0
  - name: IAPScene
    uniqueID: 3584159067
    locked: 0
